<svg xmlns="http://www.w3.org/2000/svg" width="39.031" height="37.303" viewBox="0 0 39.031 37.303">
  <g id="white-it" transform="translate(-0.984 -1.848)">
    <path id="Контур_15080" data-name="Контур 15080" d="M31.437,16.75,38,20.5l-17.5,10L3,20.5l6.562-3.75" fill="none" stroke="#fff" stroke-width="2" fill-rule="evenodd"/>
    <path id="Контур_15081" data-name="Контур 15081" d="M31.437,24.25,38,28,20.5,38,3,28l6.562-3.75" fill="none" stroke="#fff" stroke-width="2" fill-rule="evenodd"/>
    <path id="Контур_15082" data-name="Контур 15082" d="M3,13,20.5,3,38,13,20.5,23Z" fill="none" stroke="#fff" stroke-linecap="square" stroke-width="2" fill-rule="evenodd"/>
  </g>
</svg>
