<svg xmlns="http://www.w3.org/2000/svg" width="24" height="24" viewBox="0 0 24 24">
  <g id="Icons_Navigation_icon_12_states_" data-name="Icons / Navigation icon (12 states)" opacity="0.604">
    <g id="ic-calendar">
      <path id="Контур_445" data-name="Контур 445" d="M0,0H24V24H0Z" fill="none"/>
      <rect id="Прямоугольник_608" data-name="Прямоугольник 608" width="16" height="16" rx="2" transform="translate(4 5)" fill="none" stroke="#012c6e" stroke-linecap="round" stroke-linejoin="round" stroke-width="2"/>
      <line id="Линия_31" data-name="Линия 31" y2="4" transform="translate(16 3)" fill="none" stroke="#012c6e" stroke-linecap="round" stroke-linejoin="round" stroke-width="2"/>
      <line id="Линия_32" data-name="Линия 32" y2="4" transform="translate(8 3)" fill="none" stroke="#012c6e" stroke-linecap="round" stroke-linejoin="round" stroke-width="2"/>
      <line id="Линия_33" data-name="Линия 33" x2="16" transform="translate(4 11)" fill="none" stroke="#012c6e" stroke-linecap="round" stroke-linejoin="round" stroke-width="2"/>
      <rect id="Прямоугольник_609" data-name="Прямоугольник 609" width="2" height="2" transform="translate(8 15)" fill="none" stroke="#012c6e" stroke-linecap="round" stroke-linejoin="round" stroke-width="2"/>
    </g>
  </g>
</svg>
