<svg xmlns="http://www.w3.org/2000/svg" width="38.147" height="39.535" viewBox="0 0 38.147 39.535">
  <g id="Сгруппировать_2626" data-name="Сгруппировать 2626" transform="translate(-1054.649 -5663.077)">
    <path id="Shape" d="M38.147,34.436c0-3.558-9.733-4.632-14.011-4.93,3.605-5.527,8.162-13.3,8.162-17.29C32.3,5.478,26.371,0,19.082,0S5.866,5.478,5.866,12.215c0,3.994,4.556,11.764,8.161,17.29C9.75,29.8.009,30.878,0,34.436c0,3.5,9.89,5.1,19.073,5.1S38.147,37.937,38.147,34.436Z" transform="translate(1054.649 5663.077)" fill="#fff"/>
    <path id="Shape-2" data-name="Shape" d="M11.126,5.491A5.527,5.527,0,0,0,5.563,0,5.526,5.526,0,0,0,0,5.491a5.526,5.526,0,0,0,5.563,5.49A5.527,5.527,0,0,0,11.126,5.491Z" transform="translate(1068.16 5669.666)" fill="#012c6e" stroke="rgba(0,0,0,0)" stroke-width="1"/>
  </g>
</svg>
