<svg xmlns="http://www.w3.org/2000/svg" width="51.471" height="63.222" viewBox="0 0 51.471 63.222">
  <g id="Сгруппировать_15218" data-name="Сгруппировать 15218" transform="translate(-44.806)">
    <path id="Контур_16437" data-name="Контур 16437" d="M80.3,0H54.9a6.739,6.739,0,0,0-6.729,6.729V31.611h-.657a2.711,2.711,0,0,0-2.711,2.712V50.766a2.711,2.711,0,0,0,2.711,2.711h.657v3.015A6.736,6.736,0,0,0,54.9,63.222H89.55a6.736,6.736,0,0,0,6.727-6.729V15.925ZM89.55,59.1H54.9A2.61,2.61,0,0,1,52.3,56.493V53.478H84.6a2.711,2.711,0,0,0,2.712-2.711V34.322A2.711,2.711,0,0,0,84.6,31.611H52.3V6.729a2.609,2.609,0,0,1,2.606-2.6L78.754,4.1v8.816a4.668,4.668,0,0,0,4.666,4.666l8.636-.025.1,38.935A2.608,2.608,0,0,1,89.55,59.1Z" fill="#012c6e"/>
    <path id="Контур_16439" data-name="Контур 16439" d="M1.227,0V-11.359H3.539v9.43h5.75V0Zm9.711,0V-11.453H19.43v1.938H13.25v2.539H19v1.93H13.25V-1.93h6.4V0Zm9.508,0,3.914-5.977-3.547-5.477h2.7l2.3,3.68,2.25-3.68h2.68L27.18-5.891,31.094,0H28.3L25.766-3.961,23.219,0Z" transform="translate(50.561 48)" fill="#fff"/>
  </g>
</svg>
