<svg xmlns="http://www.w3.org/2000/svg" width="175.66" height="49.108" viewBox="0 0 175.66 49.108">
  <g id="Сгруппировать_2584" data-name="Сгруппировать 2584" transform="translate(0 0)">
    <path id="Контур_368" data-name="Контур 368" d="M11380.095,1222.214a6.467,6.467,0,1,1,9.146-9.145l9.787,9.786a6.467,6.467,0,0,1-9.146,9.145Z" transform="translate(-11246.314 -1197.137)" fill="rgba(255,255,255,0.71)"/>
    <path id="Контур_369" data-name="Контур 369" d="M11389.865,368.7a6.466,6.466,0,0,1,9.143,9.145l-9.785,9.787a6.467,6.467,0,0,1-9.146-9.145Z" transform="translate(-11246.298 -362.556)" fill="rgba(255,255,255,0.71)"/>
    <path id="Контур_370" data-name="Контур 370" d="M3628.864,614.5a6.449,6.449,0,0,1-9.146,9.094L3612,615.842a6.449,6.449,0,0,1,9.146-9.094Z" transform="translate(-3568.281 -597.836)" fill="rgba(255,255,255,0.71)"/>
    <path id="Контур_371" data-name="Контур 371" d="M5828.979,519.294a6.466,6.466,0,1,1,9.145-9.145l8.909,8.908a6.466,6.466,0,0,1-9.144,9.145Z" transform="translate(-5759.542 -502.364)" fill="rgba(255,255,255,0.71)"/>
    <path id="Контур_372" data-name="Контур 372" d="M6606.723,548.306a6.466,6.466,0,0,1-9.145-9.145l8.673-8.673a6.467,6.467,0,1,1,9.146,9.145Z" transform="translate(-6519.232 -522.468)" fill="rgba(255,255,255,0.71)"/>
    <path id="Контур_373" data-name="Контур 373" d="M5932.8,1278.7a6.466,6.466,0,0,1,9.145,9.145l-7.8,7.8A6.467,6.467,0,0,1,5925,1286.5Z" transform="translate(-5854.449 -1262.006)" fill="rgba(255,255,255,0.71)"/>
    <path id="Контур_374" data-name="Контур 374" d="M8501.843,1070.181a6.467,6.467,0,0,1,9.146,9.145l-10.375,10.375a6.467,6.467,0,0,1-9.146-9.145Z" transform="translate(-8391.17 -1055.905)" fill="rgba(255,255,255,0.71)"/>
    <path id="Контур_375" data-name="Контур 375" d="M8494.375,1850.548a6.449,6.449,0,0,1,9.1,9.145l-1.348,1.348a6.449,6.449,0,1,1-9.1-9.145Z" transform="translate(-8392.705 -1827.245)" fill="rgba(255,255,255,0.71)"/>
    <path id="Контур_376" data-name="Контур 376" d="M12234.264,1212.981a6.466,6.466,0,0,1,9.144,9.145l-9.785,9.787a6.467,6.467,0,0,1-9.147-9.145Z" transform="translate(-12080.908 -1197.05)" fill="rgba(255,255,255,0.71)"/>
    <path id="Контур_377" data-name="Контур 377" d="M11.025,631.26a6.449,6.449,0,1,1-9.145-9.094l15.374-15.411a6.449,6.449,0,1,1,9.145,9.094Z" transform="translate(-0.004 -597.844)" fill="rgba(255,255,255,0.71)"/>
    <path id="Контур_378" data-name="Контур 378" d="M12243.387,378.488a6.466,6.466,0,1,1-9.144,9.145l-9.787-9.787a6.466,6.466,0,0,1,9.145-9.145Z" transform="translate(-12080.889 -362.556)" fill="rgba(255,255,255,0.71)"/>
    <path id="Контур_379" data-name="Контур 379" d="M2479.285,629.121a6.449,6.449,0,0,1-9.145-9.094l13.235-13.271a6.449,6.449,0,1,1,9.145,9.094Z" transform="translate(-2439.654 -597.844)" fill="rgba(255,255,255,0.71)"/>
    <path id="Контур_380" data-name="Контур 380" d="M1350.643,620.029a6.449,6.449,0,0,1-9.145,9.094l-13.235-13.271a6.449,6.449,0,1,1,9.145-9.094Z" transform="translate(-1311.012 -597.846)" fill="rgba(255,255,255,0.71)"/>
    <path id="Контур_381" data-name="Контур 381" d="M53.92,3770.632l.239-.644a1.835,1.835,0,0,0,.913.374c.418,0,.628-.177.628-.529q0-.38-.608-.652a4.967,4.967,0,0,1-.63-.325,1.365,1.365,0,0,1-.282-.251,1,1,0,0,1-.18-.3.981.981,0,0,1-.059-.341.875.875,0,0,1,.344-.736,1.429,1.429,0,0,1,.9-.264,2.877,2.877,0,0,1,1.057.264l-.193.627a1.306,1.306,0,0,0-.813-.322.7.7,0,0,0-.41.115.342.342,0,0,0-.166.291.6.6,0,0,0,.418.557l.487.222a1.69,1.69,0,0,1,.65.464,1.034,1.034,0,0,1,.2.654.977.977,0,0,1-.361.805,1.551,1.551,0,0,1-1,.292,2.278,2.278,0,0,1-1.137-.3Zm11.823-.212a1.5,1.5,0,0,1-1.246.512,1.071,1.071,0,0,1-.78-.328,1.1,1.1,0,0,1-.331-.814,1.217,1.217,0,0,1,.509-.986,2.028,2.028,0,0,1,1.3-.4,1.5,1.5,0,0,1,.486.095q0-.928-.829-.929a1.328,1.328,0,0,0-.98.344l-.285-.57a1.67,1.67,0,0,1,.535-.267,2.1,2.1,0,0,1,.653-.112,1.364,1.364,0,0,1,1.588,1.582v1.373a.7.7,0,0,0,.3.671v.336a1.294,1.294,0,0,1-.622-.116.662.662,0,0,1-.3-.388Zm-.064-1.44a2.408,2.408,0,0,0-.45-.073,1.283,1.283,0,0,0-.837.266.79.79,0,0,0-.325.627c0,.4.234.6.7.6a1.152,1.152,0,0,0,.91-.49Zm10.275-2.9a1.218,1.218,0,0,0-.388-.071.651.651,0,0,0-.515.235.88.88,0,0,0-.2.6.945.945,0,0,0,.022.2h.776v.57H74.87v3.254h-.681V3767.6h-.557v-.57h.558a1.7,1.7,0,0,1,.361-1.148,1.205,1.205,0,0,1,.956-.417,2.112,2.112,0,0,1,.637.107l-.19.5Zm10.312,2.941H83.507a1.374,1.374,0,0,0,.368,1.03,1.153,1.153,0,0,0,.836.315,1.418,1.418,0,0,0,.971-.344l.286.49a1.294,1.294,0,0,1-.482.273,2.588,2.588,0,0,1-.908.151,1.694,1.694,0,0,1-1.227-.49,1.913,1.913,0,0,1-.562-1.45,2.044,2.044,0,0,1,.576-1.52,1.675,1.675,0,0,1,1.22-.51,1.741,1.741,0,0,1,1.284.461,1.579,1.579,0,0,1,.451,1.177,1.543,1.543,0,0,1-.054.416Zm-1.649-1.485a1.077,1.077,0,0,0-1.1.994h2.124a.977.977,0,0,0-.257-.692,1.008,1.008,0,0,0-.771-.3Zm13.977-1.944a.413.413,0,0,1,.3.123.408.408,0,0,1,.123.3.419.419,0,0,1-.422.422.409.409,0,0,1-.3-.123.414.414,0,0,1-.123-.3.416.416,0,0,1,.42-.418Zm-.376,5.271v-3.253h-.527v-.57H98.9v3.823Zm10.648,0v-.281a1.415,1.415,0,0,1-1.031.347,1.476,1.476,0,0,1-1.167-.514,2.014,2.014,0,0,1-.447-1.371,2.2,2.2,0,0,1,.515-1.469,1.559,1.559,0,0,1,1.227-.608,1.3,1.3,0,0,1,.9.279v-1.771h.681v5.389h-.681Zm0-2.942a.8.8,0,0,0-.7-.385,1.092,1.092,0,0,0-.884.407,1.559,1.559,0,0,0-.338,1.034q0,1.381,1.259,1.381a.986.986,0,0,0,.386-.1.557.557,0,0,0,.282-.217Zm11.326,1.1h-2.759a1.375,1.375,0,0,0,.368,1.03,1.154,1.154,0,0,0,.836.315,1.418,1.418,0,0,0,.972-.344l.286.49a1.293,1.293,0,0,1-.482.273,2.589,2.589,0,0,1-.908.151,1.7,1.7,0,0,1-1.227-.49,1.914,1.914,0,0,1-.561-1.45,2.045,2.045,0,0,1,.576-1.52,1.676,1.676,0,0,1,1.22-.51,1.741,1.741,0,0,1,1.284.461,1.579,1.579,0,0,1,.451,1.177,1.528,1.528,0,0,1-.054.416Zm-1.648-1.485a1.064,1.064,0,0,0-.763.295,1.077,1.077,0,0,0-.333.7h2.124a.977.977,0,0,0-.258-.692,1.006,1.006,0,0,0-.77-.3Zm11.223,3.327v-2.227a1.471,1.471,0,0,0-.185-.855.722.722,0,0,0-.616-.245,1.018,1.018,0,0,0-.487.139,1.083,1.083,0,0,0-.389.343v2.844h-.681v-3.824h.465l.215.492a1.182,1.182,0,0,1,1.1-.565q1.26,0,1.26,1.529v2.368h-.681Zm8.334-3.291h-.447v-.533h.447v-.8l.681-.26v1.06h1.055v.533h-1.055v1.9a1.12,1.12,0,0,0,.164.688.636.636,0,0,0,.526.2,1.278,1.278,0,0,0,.544-.131l.1.594a3.755,3.755,0,0,1-.93.107,1.01,1.01,0,0,1-.771-.337,1.205,1.205,0,0,1-.314-.853Zm9.81-1.981a.413.413,0,0,1,.3.123.408.408,0,0,1,.123.3.419.419,0,0,1-.422.422.408.408,0,0,1-.3-.123.414.414,0,0,1-.123-.3.416.416,0,0,1,.42-.418Zm-.376,5.271v-3.253h-.527v-.57h1.209v3.823Zm18.071-5.271a.42.42,0,1,1-.42.418.416.416,0,0,1,.42-.418Zm-.376,5.271v-3.253H164.7v-.57h1.209v3.823Zm11.132-3.517-.34.475a1,1,0,0,0-.37-.194,1.579,1.579,0,0,0-.521-.092,1.1,1.1,0,0,0-.888.388,1.6,1.6,0,0,0-.329,1.064,1.441,1.441,0,0,0,.332,1.024,1.208,1.208,0,0,0,.923.353,1.532,1.532,0,0,0,.923-.352l.269.571a2.47,2.47,0,0,1-1.357.351,1.741,1.741,0,0,1-1.3-.525,1.955,1.955,0,0,1-.511-1.422,2.024,2.024,0,0,1,.535-1.469,2.064,2.064,0,0,1,2.115-.43A1.857,1.857,0,0,1,176.362,3767.342Zm9.32,3.078a1.5,1.5,0,0,1-1.246.511,1.07,1.07,0,0,1-.78-.328,1.1,1.1,0,0,1-.331-.814,1.217,1.217,0,0,1,.509-.986,2.029,2.029,0,0,1,1.3-.4,1.5,1.5,0,0,1,.486.095q0-.928-.829-.929a1.325,1.325,0,0,0-.98.344l-.286-.57a1.674,1.674,0,0,1,.535-.268,2.1,2.1,0,0,1,.653-.112,1.364,1.364,0,0,1,1.588,1.582v1.373a.7.7,0,0,0,.3.671v.336a1.288,1.288,0,0,1-.621-.117A.662.662,0,0,1,185.682,3770.42Zm-.064-1.441a2.408,2.408,0,0,0-.449-.073,1.284,1.284,0,0,0-.837.266.791.791,0,0,0-.325.628c0,.4.234.6.7.6a1.153,1.153,0,0,0,.91-.49Zm8.444-1.411h-.446v-.533h.446v-.8l.681-.26v1.06H195.8v.533h-1.055v1.9a1.12,1.12,0,0,0,.164.688.636.636,0,0,0,.526.2,1.28,1.28,0,0,0,.544-.131l.1.594a3.756,3.756,0,0,1-.93.107,1.011,1.011,0,0,1-.771-.337,1.206,1.206,0,0,1-.314-.853Zm9.811-1.981a.413.413,0,0,1,.3.123.408.408,0,0,1,.123.3.42.42,0,0,1-.422.422.409.409,0,0,1-.3-.123.414.414,0,0,1-.124-.3.416.416,0,0,1,.42-.418Zm-.376,5.271v-3.253h-.528v-.57h1.209v3.823H203.5Zm7.967-1.921a2.093,2.093,0,0,1,.477-1.432,1.769,1.769,0,0,1,2.533-.02,2.536,2.536,0,0,1-.011,2.913,1.773,1.773,0,0,1-2.542-.007A2.173,2.173,0,0,1,211.462,3768.938Zm.717,0q0,1.439,1.017,1.438a.855.855,0,0,0,.742-.385,1.811,1.811,0,0,0,.27-1.053q0-1.42-1.012-1.421a.871.871,0,0,0-.741.378,1.737,1.737,0,0,0-.276,1.043Zm12.27,1.921v-2.227a1.471,1.471,0,0,0-.184-.855.723.723,0,0,0-.616-.245,1.018,1.018,0,0,0-.487.139,1.083,1.083,0,0,0-.389.343v2.844h-.681v-3.824h.465l.215.492a1.182,1.182,0,0,1,1.1-.565q1.26,0,1.26,1.529v2.368h-.681Zm-66.626-4.783a1.219,1.219,0,0,0-.388-.072.65.65,0,0,0-.515.235.88.88,0,0,0-.2.6.95.95,0,0,0,.022.2h.776v.57h-.776v3.253h-.681v-3.253H155.5v-.57h.558a1.7,1.7,0,0,1,.361-1.148,1.205,1.205,0,0,1,.956-.417,2.114,2.114,0,0,1,.637.107l-.19.5Z" transform="translate(-53.295 -3721.824)" fill="rgba(255,255,255,0.71)"/>
    <path id="Контур_382" data-name="Контур 382" d="M12233.566,271.257a6.466,6.466,0,0,1-9.145-9.145l21.053-21.053a6.466,6.466,0,0,1,9.145,9.145Z" transform="translate(-12080.854 -236.394)" fill="rgba(255,255,255,0.71)"/>
    <path id="Контур_383" data-name="Контур 383" d="M10345.173,8.278a1.6,1.6,0,0,0,2.214,0l0-.005,0-.006.034-.035a1.556,1.556,0,0,0,.454-1.11h.011a1.576,1.576,0,0,0-.46-1.115l0,.005a1.56,1.56,0,0,0-1.11-.455,1.58,1.58,0,0,0-1.117.45l-.033.033.006.005-.085.081a1.612,1.612,0,0,0,.079,2.144l.006-.005Zm1.1,6a7.1,7.1,0,0,1-5.035-2.081l0-.007-.006-.005a7.1,7.1,0,0,1-.175-9.866c.055-.066.113-.13.176-.192l0,0,.039-.04a7.121,7.121,0,0,1,10.061,0l0,.006,0,.005a7.084,7.084,0,0,1,2.071,5.024h.01a7.1,7.1,0,0,1-2.081,5.035l-.036.035,0-.006a7.1,7.1,0,0,1-5.028,2.086Z" transform="translate(-10219.316 -0.011)" fill="rgba(255,255,255,0.71)"/>
  </g>
</svg>
