<svg xmlns="http://www.w3.org/2000/svg" width="42" height="43" viewBox="0 0 42 43">
  <g id="Сгруппировать_15140" data-name="Сгруппировать 15140" transform="translate(-341 -2425)">
    <g id="Linkedin" transform="translate(340.862 2425.24)">
      <ellipse id="bg" cx="21" cy="21.5" rx="21" ry="21.5" transform="translate(0.138 -0.24)" fill="#fff"/>
    </g>
    <path id="Icon_awesome-telegram-plane" data-name="Icon awesome-telegram-plane" d="M19.781,6.043,16.788,20.16c-.226,1-.815,1.244-1.652.775l-4.561-3.361-2.2,2.117a1.145,1.145,0,0,1-.917.447l.328-4.645,8.453-7.639c.368-.328-.08-.509-.571-.182L5.217,14.252l-4.5-1.408c-.979-.306-1-.979.2-1.448l17.6-6.78c.815-.306,1.528.182,1.262,1.426Z" transform="translate(351.82 2433.622)" fill="#000c8e"/>
  </g>
</svg>
