<svg xmlns="http://www.w3.org/2000/svg" width="96" height="96" viewBox="0 0 96 96">
  <g id="Сгруппировать_2627" data-name="Сгруппировать 2627" transform="translate(-1707 -4371)">
    <circle id="Эллипс_95" data-name="Эллипс 95" cx="48" cy="48" r="48" transform="translate(1707 4371)" fill="#fff"/>
    <g id="Icon_ionic-ios-arrow-dropdown" data-name="Icon ionic-ios-arrow-dropdown" transform="translate(1730 4395)">
      <path id="Контур_1565" data-name="Контур 1565" d="M10.659,29.837a2.329,2.329,0,0,1,0-3.281l11.5-11.466a2.317,2.317,0,0,1,3.2-.072l11.334,11.3A2.316,2.316,0,1,1,33.423,29.6l-9.736-9.591L13.94,29.849A2.318,2.318,0,0,1,10.659,29.837Z" transform="translate(1.313 0.607)" fill="#012c6e"/>
      <path id="Контур_1566" data-name="Контур 1566" d="M3.375,28.375a25,25,0,1,1,25,25A25,25,0,0,1,3.375,28.375ZM43.327,43.327a21.145,21.145,0,1,0-29.9-29.9,21.145,21.145,0,1,0,29.9,29.9Z" transform="translate(-3.375 -3.375)" fill="#012c6e"/>
    </g>
  </g>
</svg>
