<svg xmlns="http://www.w3.org/2000/svg" width="775.695" height="89" viewBox="0 0 775.695 89">
  <g id="Сгруппировать_10935" data-name="Сгруппировать 10935" transform="translate(-194.305 -274.5)">
    <g id="Слой_x0020_1" transform="translate(873.644 283.326)">
      <g id="_2882130978912" transform="translate(-0.015 0.049)">
        <path id="Контур_15151" data-name="Контур 15151" d="M68.621.48A32.131,32.131,0,0,1,99.9,39.873H88.109a2.442,2.442,0,0,0-2.434,2.435V47.68a2.442,2.442,0,0,0,2.434,2.434h7.414a32.293,32.293,0,0,1-8.7,8.922,79.64,79.64,0,0,0-8.458-13.677C89.474,30.039,94.544,16.8,90.036,12.468,86.054,8.644,75.58,12.723,63.151,22A96.613,96.613,0,0,0,44.724,11.147,32.025,32.025,0,0,1,68.621.48ZM51.534,51.01c-3.194-4.266-18.273-24.966-11.392-31.7,3.423-3.352,11.47-1.739,21.812,3.6a154.718,154.718,0,0,0-12.6,10.839c4.4-3.294,25-18.234,31.7-11.391,3.352,3.423,1.739,11.469-3.6,21.811a154.693,154.693,0,0,0-10.839-12.6C69.4,35.281,78.341,46.936,79.428,55.61c1.41,11.248-17.606,10.79-25.457,5.718l4.191-3.19c3.46-2.753,7.036-5.874,10.638-9.308A91.059,91.059,0,0,1,51.2,59.562,32.23,32.23,0,0,1,36.514,32.587v0A138.848,138.848,0,0,0,51.534,51.01Zm39.125-5.987,1.228-2.9h1.736L91.473,46.4v2.4H89.842V46.4L87.7,42.126h1.728l1.232,2.9ZM95.822,48.8h-1.6V42.126h1.6Zm2.727-1.239h2.8V48.8H96.941V42.126H98.55v5.433ZM4.979,63.376v-6.71a3.817,3.817,0,0,1,1.2-2.848l20.22-20.405c3.587-3.676,6.711-8.179,6.711-12.224,0-4.319-2.2-6.8-6.345-6.8-3.856,0-6.157,1.563-6.894,4.963-.274,1.471-1.011,2.206-2.388,2.206H7.278a2.011,2.011,0,0,1-2.207-2.39C6.174,5.839,16.194.049,26.394.049,33.19.049,39.947,2.619,44,8.22a34.669,34.669,0,0,0-8.336,35.045L27.131,51.52H39.619a34.829,34.829,0,0,0,9.113,9.419v2.438a2.084,2.084,0,0,1-2.3,2.3H7.278a2.084,2.084,0,0,1-2.3-2.3Z" transform="translate(-4.979 -0.049)" fill="#fff" fill-rule="evenodd"/>
      </g>
    </g>
    <line id="Линия_370" data-name="Линия 370" y2="89" transform="translate(848.5 274.5)" fill="none" stroke="#fff" stroke-width="1"/>
    <g id="Слой_x0020_1-2" data-name="Слой_x0020_1" transform="translate(194.305 285.339)">
      <g id="_1645964464592">
        <path id="Контур_14346" data-name="Контур 14346" d="M7361.578,79.244H7353.5l.008-52.444-14.967,39.5c-3.266,7.817-13.911,6.616-16.173,0l-15.128-37,.035,14.152V65.816l0,.125h0v6.973c-.044,4.157-2.219,6.158-6.329,6.33h-6.813V20.86l0-.149,0-.148h0l.013-.148.017-.148.021-.148.024-.147.028-.148.034-.147.035-.146.04-.145h0l.047-.144.047-.145.052-.142.057-.142.059-.142.063-.139.068-.139.07-.137.072-.136h0l.077-.135.078-.133h0l.083-.132.087-.13.088-.129h0l.09-.127h0l.1-.126h0l.1-.123h0l.1-.121.1-.119.1-.118.109-.115.109-.112h0l.113-.11.115-.108.116-.105h0l.121-.1.119-.1.123-.1.125-.095h0l.127-.092h0l.129-.09h0l.126-.086.132-.083.134-.08.134-.077.137-.073.137-.071.139-.067h0l.139-.063.143-.06h0l.143-.056h0l.141-.053.143-.048h0l.147-.044.144-.041.146-.037.147-.033h0l.144-.028h0l.146-.026.149-.019.147-.017.149-.011.148-.008.149,0h15.013l15.444,41.266,14.942-37.753a5.872,5.872,0,0,1,5.655-3.513h16.374V72.914C7367.894,77.247,7366.143,79.232,7361.578,79.244Z" transform="translate(-6744.734 -13.426)" fill="#fff"/>
        <path id="Контур_14347" data-name="Контур 14347" d="M6341.074,66.942q-13.916,0-22.666-9.043-8.759-9.06-8.749-23.588,0-15.344,8.889-24.821T6342.1,0q13.864,0,22.417,9.074T6373.075,33q0,15.255-8.876,24.605-8.852,9.337-23.125,9.337Zm.631-54.386a14.64,14.64,0,0,0-12.189,5.762q-4.5,5.755-4.514,15.222,0,9.615,4.514,15.223a14.455,14.455,0,0,0,11.817,5.592,14.641,14.641,0,0,0,11.972-5.439q4.412-5.453,4.421-15.1,0-10.077-4.282-15.67A14.01,14.01,0,0,0,6341.706,12.556Z" transform="translate(-5834.409 0)" fill="#fff"/>
        <path id="Контур_14348" data-name="Контур 14348" d="M5605.7,64.852a45.207,45.207,0,0,1-15,2.092q-14.881,0-23.418-8.752T5558.75,34.85q0-15.528,9.583-25.19T5593.23,0a50.705,50.705,0,0,1,9.264.725c3.817.667,6.632,1.958,6.714,6.578v3.79c-.383,3.9-3.632,3.521-5.407,2.971a31.339,31.339,0,0,0-9.4-1.507q-9.107,0-14.715,5.73-5.592,5.732-5.591,15.531,0,9.382,5.284,14.96,5.266,5.569,14.218,5.578c4.031,0,6.656-1.028,10.371-1.857,2.184-.488,5.243.508,5.238,2.849v3.41C5609.084,62.559,5607.931,64.1,5605.7,64.852Z" transform="translate(-5140.06 0)" fill="#fff"/>
        <path id="Контур_14349" data-name="Контур 14349" d="M4659.455,66.942q-13.915,0-22.664-9.043-8.76-9.06-8.752-23.588,0-15.344,8.892-24.821T4660.487,0q13.866,0,22.415,9.074T4691.455,33q0,15.255-8.876,24.605-8.848,9.337-23.124,9.337Zm.632-54.386a14.641,14.641,0,0,0-12.189,5.762q-4.505,5.755-4.512,15.222,0,9.615,4.512,15.223a14.459,14.459,0,0,0,11.818,5.592,14.639,14.639,0,0,0,11.971-5.439q4.416-5.453,4.421-15.1,0-10.077-4.283-15.67A14.009,14.009,0,0,0,4660.086,12.556Z" transform="translate(-4279.449 0)" fill="#fff"/>
        <path id="Контур_14350" data-name="Контур 14350" d="M4081.075,26.384h-22.832v15.9h14.643a6.818,6.818,0,0,1,6.34,6.341V54.1h-20.982V79.245h-8.251a6.82,6.82,0,0,1-6.342-6.341V14.52h31.083a6.819,6.819,0,0,1,6.341,6.341Z" transform="translate(-3739.078 -13.426)" fill="#fff"/>
        <path id="Контур_14351" data-name="Контур 14351" d="M3124.489,79.119c-2.391-.043-5.694.534-9.363-3.813l-24.2-36.881a61.028,61.028,0,0,1-3.251-5.362h-.168c.23,2.281.354,5.779.354,10.462V74.158c0,2.251-1.573,4.942-3.718,4.942H3074.09V20.715c.64-4.857,5.481-6.445,8.68-6.338,3.528-.107,6.53.325,9.486,3.758l23.231,35.637c1.172,1.787,2.249,3.542,3.251,5.283h.185a67.641,67.641,0,0,1-.369-8.89v-29.5a6.816,6.816,0,0,1,6.364-6.289h7.4l.007,6.341V72.759C3132.15,77.479,3127.448,79.174,3124.489,79.119Z" transform="translate(-2842.546 -13.281)" fill="#fff"/>
        <path id="Контур_14352" data-name="Контур 14352" d="M2693.479,79.245h-8.25V20.861a6.82,6.82,0,0,1,6.34-6.341h8.25v58.4A6.815,6.815,0,0,1,2693.479,79.245Z" transform="translate(-2482.974 -13.426)" fill="#fff"/>
        <path id="Контур_14353" data-name="Контур 14353" d="M1915.236,79.245H1875.72c-5.672,0-8.065-6.538-4.3-11.133l31.131-41.729h-30.784V20.873a6.826,6.826,0,0,1,6.377-6.353h43.279c.243,4.888-.749,9.158-3.265,12.666l-29.181,40.225h32.538v5.512a6.807,6.807,0,0,1-6.278,6.322Z" transform="translate(-1728.78 -13.426)" fill="#fff"/>
        <path id="Контур_14354" data-name="Контур 14354" d="M1096.233,51.219q0,29.141-27.162,29.149-26.369,0-26.361-28.471l.008-31.037c0-3.17,1.814-6.341,6.344-6.341h8.27V52.067q0,15.715,12.278,15.715,12.04,0,12.049-15.176V20.861a6.866,6.866,0,0,1,6.328-6.341h8.245Z" transform="translate(-964.172 -13.426)" fill="#fff"/>
        <path id="Контур_14355" data-name="Контур 14355" d="M64.252,15.64H8.44A8.464,8.464,0,0,0,0,24.08v1.876a28.026,28.026,0,0,1,5.059,1.335C10.842,29.343,18.042,33.4,25.773,39c6.283-4.681,12.065-8.03,16.755-9.692,4.581-1.624,8.137-1.643,10.126.267,2.253,2.162,2.162,6.487.153,12.15C50.755,47.505,46.7,54.706,41.1,62.437c4.681,6.283,8.029,12.066,9.692,16.756.084.236.163.468.238.7h4.781a8.464,8.464,0,0,0,8.44-8.439V15.64ZM0,51.076V71.453a8.457,8.457,0,0,0,4.342,7.369,19.875,19.875,0,0,0,7.064-1.4c5.526-1.985,12.4-6.005,19.918-11.635A.137.137,0,0,1,31.5,66h0q-3.177,3.029-6.31,5.721c-2.12,1.823-4.211,3.523-6.254,5.086h0l-1.192.9h0Q16.2,78.854,14.7,79.892H40.758c1.929-2.221,1.82-6.137,0-11.2-1.985-5.526-6.006-12.4-11.636-19.919a.136.136,0,0,1,.208-.176h0c2.019,2.118,3.931,4.229,5.722,6.31,1.772,2.06,3.427,4.094,4.955,6.082A48.389,48.389,0,0,0,44.97,47.564c.588-3.571.152-6.313-1.452-7.952-2.161-2.207-6.2-2.173-11.488-.273-5.526,1.985-12.4,6.005-19.918,11.635a.136.136,0,0,1-.175-.208h0q3.176-3.028,6.307-5.719c2.06-1.773,4.1-3.429,6.085-4.957A48.394,48.394,0,0,0,10.9,35.129c-3.572-.589-6.313-.153-7.952,1.452-2.208,2.161-2.173,6.2-.273,11.487,1.985,5.526,6.005,12.4,11.635,19.917a.137.137,0,0,1-.209.176h0q-3.028-3.176-5.719-6.307C6.56,59.735,4.859,57.643,3.3,55.6h0l-.9-1.192h0v0h0Q1.13,52.714,0,51.076Z" transform="translate(0 -14.462)" fill="#fff" fill-rule="evenodd"/>
      </g>
    </g>
  </g>
</svg>
